changing dir to /export/uec-gs1/laird/shared/production/ga/flowcells/C1C2BACXX/results/C1C2BACXX/C1C2BACXX_1_SCH1667A5/
/home/uec-00/shared/production/software/samtools/samtools view -h -f 4 ResultCount_C1C2BACXX_1_SCH1667A5.male.hg19.fa.mdups.bam  | head -n 5000050 > ResultCount_C1C2BACXX_1_SCH1667A5.male.hg19.fa.mdups.bam.unaln.sam
/home/uec-00/shared/production/software/samtools/samtools view -b -S ResultCount_C1C2BACXX_1_SCH1667A5.male.hg19.fa.mdups.bam.unaln.sam > ResultCount_C1C2BACXX_1_SCH1667A5.male.hg19.fa.mdups.bam.unaln.bam
[samopen] SAM header is present: 25 sequences.
/home/uec-00/shared/production/software/bwa/latest/bwa aln -t 7 -b0 /auto/uec-00/shared/production/genomes/salmon/salmosalar.fa ResultCount_C1C2BACXX_1_SCH1667A5.male.hg19.fa.mdups.bam.unaln.bam > ResultCount_C1C2BACXX_1_SCH1667A5.male.hg19.fa.mdups.bam.unaln.sai
[bwa_aln] 17bp reads: max_diff = 2
[bwa_aln] 38bp reads: max_diff = 3
[bwa_aln] 64bp reads: max_diff = 4
[bwa_aln] 93bp reads: max_diff = 5
[bwa_aln] 124bp reads: max_diff = 6
[bwa_aln] 157bp reads: max_diff = 7
[bwa_aln] 190bp reads: max_diff = 8
[bwa_aln] 225bp reads: max_diff = 9
[bwa_aln_core] calculate SA coordinate... 94.25 sec
[bwa_aln_core] write to the disk... 0.04 sec
[bwa_aln_core] 262144 sequences have been processed.
[bwa_aln_core] calculate SA coordinate... 82.13 sec
[bwa_aln_core] write to the disk... 0.02 sec
[bwa_aln_core] 524288 sequences have been processed.
[bwa_aln_core] calculate SA coordinate... 80.97 sec
[bwa_aln_core] write to the disk... 0.03 sec
[bwa_aln_core] 786432 sequences have been processed.
[bwa_aln_core] calculate SA coordinate... 95.43 sec
[bwa_aln_core] write to the disk... 0.02 sec
[bwa_aln_core] 1048576 sequences have been processed.
[bwa_aln_core] calculate SA coordinate... 81.76 sec
[bwa_aln_core] write to the disk... 0.02 sec
[bwa_aln_core] 1310720 sequences have been processed.
[bwa_aln_core] calculate SA coordinate... 92.02 sec
[bwa_aln_core] write to the disk... 0.02 sec
[bwa_aln_core] 1572864 sequences have been processed.
[bwa_aln_core] calculate SA coordinate... 79.46 sec
[bwa_aln_core] write to the disk... 0.03 sec
[bwa_aln_core] 1835008 sequences have been processed.
[bwa_aln_core] calculate SA coordinate... 77.51 sec
[bwa_aln_core] write to the disk... 0.03 sec
[bwa_aln_core] 2097152 sequences have been processed.
[bwa_aln_core] calculate SA coordinate... 89.55 sec
[bwa_aln_core] write to the disk... 0.02 sec
[bwa_aln_core] 2359296 sequences have been processed.
[bwa_aln_core] calculate SA coordinate... 79.76 sec
[bwa_aln_core] write to the disk... 0.03 sec
[bwa_aln_core] 2621440 sequences have been processed.
[bwa_aln_core] calculate SA coordinate... 81.74 sec
[bwa_aln_core] write to the disk... 0.02 sec
[bwa_aln_core] 2883584 sequences have been processed.
[bwa_aln_core] calculate SA coordinate... 79.93 sec
[bwa_aln_core] write to the disk... 0.04 sec
[bwa_aln_core] 3145728 sequences have been processed.
[bwa_aln_core] calculate SA coordinate... 79.63 sec
[bwa_aln_core] write to the disk... 0.02 sec
[bwa_aln_core] 3407872 sequences have been processed.
[bwa_aln_core] calculate SA coordinate... 79.61 sec
[bwa_aln_core] write to the disk... 0.03 sec
[bwa_aln_core] 3670016 sequences have been processed.
[bwa_aln_core] calculate SA coordinate... 91.21 sec
[bwa_aln_core] write to the disk... 0.03 sec
[bwa_aln_core] 3932160 sequences have been processed.
[bwa_aln_core] calculate SA coordinate... 82.24 sec
[bwa_aln_core] write to the disk... 0.03 sec
[bwa_aln_core] 4194304 sequences have been processed.
[bwa_aln_core] calculate SA coordinate... 81.22 sec
[bwa_aln_core] write to the disk... 0.02 sec
[bwa_aln_core] 4456448 sequences have been processed.
[bwa_aln_core] calculate SA coordinate... 81.32 sec
[bwa_aln_core] write to the disk... 0.04 sec
[bwa_aln_core] 4718592 sequences have been processed.
[bwa_aln_core] calculate SA coordinate... 83.56 sec
[bwa_aln_core] write to the disk... 0.03 sec
[bwa_aln_core] 4980736 sequences have been processed.
[bwa_aln_core] calculate SA coordinate... 6.00 sec
[bwa_aln_core] write to the disk... 0.00 sec
[bwa_aln_core] 5000022 sequences have been processed.
[main] Version: 0.6.1-r104
[main] CMD: /home/uec-00/shared/production/software/bwa/latest/bwa aln -t 7 -b0 /auto/uec-00/shared/production/genomes/salmon/salmosalar.fa ResultCount_C1C2BACXX_1_SCH1667A5.male.hg19.fa.mdups.bam.unaln.bam
[main] Real time: 263.432 sec; CPU: 1559.262 sec
/home/uec-00/shared/production/software/bwa/latest/bwa samse /auto/uec-00/shared/production/genomes/salmon/salmosalar.fa ResultCount_C1C2BACXX_1_SCH1667A5.male.hg19.fa.mdups.bam.unaln.sai ResultCount_C1C2BACXX_1_SCH1667A5.male.hg19.fa.mdups.bam.unaln.bam > ResultCount_C1C2BACXX_1_SCH1667A5.male.hg19.fa.mdups.bam.salmo.sam
[bwa_aln_core] convert to sequence coordinate... 3.34 sec
[bwa_aln_core] refine gapped alignments... 0.74 sec
[bwa_aln_core] print alignments... 0.33 sec
[bwa_aln_core] 262144 sequences have been processed.
[bwa_aln_core] convert to sequence coordinate... 2.88 sec
[bwa_aln_core] refine gapped alignments... 0.56 sec
[bwa_aln_core] print alignments... 0.35 sec
[bwa_aln_core] 524288 sequences have been processed.
[bwa_aln_core] convert to sequence coordinate... 2.80 sec
[bwa_aln_core] refine gapped alignments... 0.53 sec
[bwa_aln_core] print alignments... 0.34 sec
[bwa_aln_core] 786432 sequences have been processed.
[bwa_aln_core] convert to sequence coordinate... 2.81 sec
[bwa_aln_core] refine gapped alignments... 0.52 sec
[bwa_aln_core] print alignments... 0.34 sec
[bwa_aln_core] 1048576 sequences have been processed.
[bwa_aln_core] convert to sequence coordinate... 2.81 sec
[bwa_aln_core] refine gapped alignments... 0.52 sec
[bwa_aln_core] print alignments... 0.34 sec
[bwa_aln_core] 1310720 sequences have been processed.
[bwa_aln_core] convert to sequence coordinate... 2.81 sec
[bwa_aln_core] refine gapped alignments... 0.53 sec
[bwa_aln_core] print alignments... 0.34 sec
[bwa_aln_core] 1572864 sequences have been processed.
[bwa_aln_core] convert to sequence coordinate... 2.83 sec
[bwa_aln_core] refine gapped alignments... 0.53 sec
[bwa_aln_core] print alignments... 0.34 sec
[bwa_aln_core] 1835008 sequences have been processed.
[bwa_aln_core] convert to sequence coordinate... 2.78 sec
[bwa_aln_core] refine gapped alignments... 0.53 sec
[bwa_aln_core] print alignments... 0.33 sec
[bwa_aln_core] 2097152 sequences have been processed.
[bwa_aln_core] convert to sequence coordinate... 2.83 sec
[bwa_aln_core] refine gapped alignments... 0.52 sec
[bwa_aln_core] print alignments... 0.34 sec
[bwa_aln_core] 2359296 sequences have been processed.
[bwa_aln_core] convert to sequence coordinate... 2.78 sec
[bwa_aln_core] refine gapped alignments... 0.53 sec
[bwa_aln_core] print alignments... 0.34 sec
[bwa_aln_core] 2621440 sequences have been processed.
[bwa_aln_core] convert to sequence coordinate... 2.81 sec
[bwa_aln_core] refine gapped alignments... 0.52 sec
[bwa_aln_core] print alignments... 0.35 sec
[bwa_aln_core] 2883584 sequences have been processed.
[bwa_aln_core] convert to sequence coordinate... 2.79 sec
[bwa_aln_core] refine gapped alignments... 0.53 sec
[bwa_aln_core] print alignments... 0.34 sec
[bwa_aln_core] 3145728 sequences have been processed.
[bwa_aln_core] convert to sequence coordinate... 2.80 sec
[bwa_aln_core] refine gapped alignments... 0.53 sec
[bwa_aln_core] print alignments... 0.35 sec
[bwa_aln_core] 3407872 sequences have been processed.
[bwa_aln_core] convert to sequence coordinate... 2.81 sec
[bwa_aln_core] refine gapped alignments... 0.51 sec
[bwa_aln_core] print alignments... 0.35 sec
[bwa_aln_core] 3670016 sequences have been processed.
[bwa_aln_core] convert to sequence coordinate... 2.81 sec
[bwa_aln_core] refine gapped alignments... 0.52 sec
[bwa_aln_core] print alignments... 0.35 sec
[bwa_aln_core] 3932160 sequences have been processed.
[bwa_aln_core] convert to sequence coordinate... 2.82 sec
[bwa_aln_core] refine gapped alignments... 0.52 sec
[bwa_aln_core] print alignments... 0.35 sec
[bwa_aln_core] 4194304 sequences have been processed.
[bwa_aln_core] convert to sequence coordinate... 2.80 sec
[bwa_aln_core] refine gapped alignments... 0.52 sec
[bwa_aln_core] print alignments... 0.34 sec
[bwa_aln_core] 4456448 sequences have been processed.
[bwa_aln_core] convert to sequence coordinate... 2.81 sec
[bwa_aln_core] refine gapped alignments... 0.51 sec
[bwa_aln_core] print alignments... 0.36 sec
[bwa_aln_core] 4718592 sequences have been processed.
[bwa_aln_core] convert to sequence coordinate... 2.80 sec
[bwa_aln_core] refine gapped alignments... 0.53 sec
[bwa_aln_core] print alignments... 0.34 sec
[bwa_aln_core] 4980736 sequences have been processed.
[bwa_aln_core] convert to sequence coordinate... 2.76 sec
[bwa_aln_core] refine gapped alignments... 0.48 sec
[bwa_aln_core] print alignments... 0.02 sec
[bwa_aln_core] 5000022 sequences have been processed.
[main] Version: 0.6.1-r104
[main] CMD: /home/uec-00/shared/production/software/bwa/latest/bwa samse /auto/uec-00/shared/production/genomes/salmon/salmosalar.fa ResultCount_C1C2BACXX_1_SCH1667A5.male.hg19.fa.mdups.bam.unaln.sai ResultCount_C1C2BACXX_1_SCH1667A5.male.hg19.fa.mdups.bam.unaln.bam
[main] Real time: 103.223 sec; CPU: 89.970 sec
/home/uec-00/shared/production/software/samtools/samtools view -S -b -h ResultCount_C1C2BACXX_1_SCH1667A5.male.hg19.fa.mdups.bam.salmo.sam > ResultCount_C1C2BACXX_1_SCH1667A5.male.hg19.fa.mdups.bam.salmo.bam
[samopen] SAM header is present: 555960 sequences.
/home/uec-00/shared/production/software/samtools/samtools flagstat ResultCount_C1C2BACXX_1_SCH1667A5.male.hg19.fa.mdups.bam.salmo.bam > ContamCheck.salmosalar.fa.5000000.s_1_CAGATC_sequence.txt.flagstat.txt
rm ResultCount_C1C2BACXX_1_SCH1667A5.male.hg19.fa.mdups.bam.unaln.sam ResultCount_C1C2BACXX_1_SCH1667A5.male.hg19.fa.mdups.bam.unaln.bam ResultCount_C1C2BACXX_1_SCH1667A5.male.hg19.fa.mdups.bam.unaln.sai ResultCount_C1C2BACXX_1_SCH1667A5.male.hg19.fa.mdups.bam.salmo.sam ResultCount_C1C2BACXX_1_SCH1667A5.male.hg19.fa.mdups.bam.salmo.bam
