@ILLUMINA-DB1410_0001:2:1:1202:8054#0/1
CCGAGATCATGCTACTGCACTCCAGCCTGGGTGACAGAGC
+ILLUMINA-DB1410_0001:2:1:1202:8054#0/1
bbbbbcbbbbbbbbbbbbbbbbbbbbbbbbbababbbbbb
@ILLUMINA-DB1410_0001:2:1:1203:15346#0/1
CTCAGCCTTGTAAATAAGTCAGAGAAAAGTAAATCAAGAC
+ILLUMINA-DB1410_0001:2:1:1203:15346#0/1
bbbbbbbbbbbbbbbbbbbbbbbbbbbabbbbbbabbbbb
@ILLUMINA-DB1410_0001:2:1:1203:11796#0/1
GATCGGAAGAGCGGTTCAGCAGGAATGCCGAGACCGATCT
+ILLUMINA-DB1410_0001:2:1:1203:11796#0/1
b^`bbabbb_Wb`b`bbbbbbba_bbbb]bbbbbbaaaPb
@ILLUMINA-DB1410_0001:2:1:1203:15020#0/1
GAATTTGGTTTCACTTAAATTAATTAAGTCATGCAGTCCG
+ILLUMINA-DB1410_0001:2:1:1203:15020#0/1
a]TZ_[]_Z\bbabbaBBBBBBBBBBBBBBBBBBBBBBBB
@ILLUMINA-DB1410_0001:2:1:1203:5957#0/1
GTTTCTAAGTGGCATGGACAGGCAAGACCACGTGCACAGA
+ILLUMINA-DB1410_0001:2:1:1203:5957#0/1
bbb_]bbbb^baa_bb_b`a[b[bba`bba`bX^b]]aaX
@ILLUMINA-DB1410_0001:2:1:1203:5805#0/1
AAAACACTAGGTAGGCTGGATTTTGCCTATGGGCTATAGT
+ILLUMINA-DB1410_0001:2:1:1203:5805#0/1
bbbbbbbbbabbbb`bbbb^bbbb^bbbbab^\bbbbbbb
@ILLUMINA-DB1410_0001:2:1:1203:3970#0/1
GATCGGAAGAGCGGTTCAGCAGGAATGCCGAGACCGATCT
+ILLUMINA-DB1410_0001:2:1:1203:3970#0/1
bbbbbbbbbbbbbb`bb`babbbbbbb``bbbbbbbaaab
@ILLUMINA-DB1410_0001:2:1:1203:4113#0/1
CATTTTGATACTTCTGAGGAACATGCATTTTTTTTTAACT
+ILLUMINA-DB1410_0001:2:1:1203:4113#0/1
bb`bbbbbbbbbbbabbbbbbbbbbbbbbbbbbaaaabbb
@ILLUMINA-DB1410_0001:2:1:1203:8025#0/1
GGTCTCGATTGGAATCATTATCAAATGGAATCGAATGGAA
+ILLUMINA-DB1410_0001:2:1:1203:8025#0/1
bbbbb`bbbbbb_bbbbbbbbb^bbbbbbbb`bZbb`b``
@ILLUMINA-DB1410_0001:2:1:1204:1546#0/1
GATCGGAAGAGCGGTCCAGCAGGAATGCCGAGACCGATCC
+ILLUMINA-DB1410_0001:2:1:1204:1546#0/1
]aaa]a]]`^aL^aZOMWWWX^^ZZaa__Y``aaa^BBBB
@ILLUMINA-DB1410_0001:2:1:1204:21037#0/1
AGCTCTCATGTGATTGCTAATATTGTTTGGATCCCATCCT
+ILLUMINA-DB1410_0001:2:1:1204:21037#0/1
^bbbbbbbbbbb`bbbbbbbbabbbbbbbbb_bbbbbbbb
@ILLUMINA-DB1410_0001:2:1:1204:2578#0/1
TTTATAGCTTGTGAGTCACCTCAACAAGGGTGGAACGAGA
+ILLUMINA-DB1410_0001:2:1:1204:2578#0/1
bbbbbbbbbbbbbbbbbbbbbcbbbbabbbabba[bb`b[
@ILLUMINA-DB1410_0001:2:1:1204:19357#0/1
CAGCTAGAAGGCAAAAACAGATCTCTAGAAATTAAGGGTC
+ILLUMINA-DB1410_0001:2:1:1204:19357#0/1
bbbabbbbbbbbbbbbbbaabbbbbbbb`bbbbbbbbbab
@ILLUMINA-DB1410_0001:2:1:1204:8429#0/1
TGCTGAAAAAGGAAATATCTACCTACAGAAACTAGACAGA
+ILLUMINA-DB1410_0001:2:1:1204:8429#0/1
bbbbbbbbbbbbbbbbbbbbbbbbbbbbbbbbbbbbbbbb
@ILLUMINA-DB1410_0001:2:1:1205:16235#0/1
GATTGTATGGTAAGAGTATATGTAATTTTGTGAGAAATTT
+ILLUMINA-DB1410_0001:2:1:1205:16235#0/1
abbbbb]bbbb^bbbPZXYQ_W___aaa[aaW__a]_aXW
@ILLUMINA-DB1410_0001:2:1:1205:15485#0/1
GCCTTTGGCATCAGAGCTAGATTTAAAGCCTGTCTCTGCT
+ILLUMINA-DB1410_0001:2:1:1205:15485#0/1
^^^Y^\aaa]QZXXZY]YP]`YaaBBBBBBBBBBBBBBBB
@ILLUMINA-DB1410_0001:2:1:1206:18714#0/1
CAGTAATGTGCATGCCATTAGAATTTCATGCATTCAAAAA
+ILLUMINA-DB1410_0001:2:1:1206:18714#0/1
`babbbbbb`bbbbbbbbbbbbabbbbbbbbbbbbbbbZb
@ILLUMINA-DB1410_0001:2:1:1206:15804#0/1
AGCAAGTTTTGCAGTGAACTTATATAAGGAAATCACTCAG
+ILLUMINA-DB1410_0001:2:1:1206:15804#0/1
b`bbb^bbbbabbbb_bbbYbbbbbbabbbbbbbbbbb_]
@ILLUMINA-DB1410_0001:2:1:1206:11176#0/1
CTTAATTTCAAGTCTTTGATTCTCTTTTCTCCTTTATTGA
+ILLUMINA-DB1410_0001:2:1:1206:11176#0/1
a`Qaa`bbbbbbbb_``a`ab_b`bbabbbbZabb\bbb_
@ILLUMINA-DB1410_0001:2:1:1206:4572#0/1
TGTCATTAATACACTTTTTGGATATAGATTTCTTTCAGAG
+ILLUMINA-DB1410_0001:2:1:1206:4572#0/1
bbbbbbbbbbbbbbbbbbbbbbbbbbbbbbbbbbaabb`_
