----------------------------------------
Begin PBS Prologue Thu Jun 14 14:02:15 PDT 2012
Job ID:            1900849.hpc-pbs.usc.edu
Username:          ramjan
Group:             hsc-ar
Name:              cpgcov_bam.6.sh
Queue:             laird_exe
Shared Access:     yes
Nodes:             hpc1440 
TMPDIR:            /tmp/1900849.hpc-pbs.usc.edu
End PBS Prologue Thu Jun 14 14:02:15 PDT 2012
----------------------------------------
Warning: no access to tty (Bad file descriptor).
Thus no job control in this shell.
----------------------------------------
Begin PBS Epilogue Thu Jun 14 15:09:34 PDT 2012
Job ID:           1900849.hpc-pbs.usc.edu
Username:         ramjan
Group:            hsc-ar
Job Name:         cpgcov_bam.6.sh
Session:          17501
Limits:           neednodes=1:ppn=8:dx340,nodes=1:ppn=8:dx340,walltime=48:00:00
Resources:        cput=00:43:06,mem=1546652kb,vmem=11285592kb,walltime=01:07:19
Queue:            laird_exe
End PBS Epilogue Thu Jun 14 15:09:34 PDT 2012
----------------------------------------
