----------------------------------------
Begin PBS Prologue Thu Jun 14 14:02:07 PDT 2012
Job ID:            1900843.hpc-pbs.usc.edu
Username:          ramjan
Group:             hsc-ar
Name:              cpgcov_bam.0.sh
Queue:             laird_exe
Shared Access:     yes
Nodes:             hpc1446 
TMPDIR:            /tmp/1900843.hpc-pbs.usc.edu
End PBS Prologue Thu Jun 14 14:02:07 PDT 2012
----------------------------------------
Warning: no access to tty (Bad file descriptor).
Thus no job control in this shell.
----------------------------------------
Begin PBS Epilogue Thu Jun 14 15:20:59 PDT 2012
Job ID:           1900843.hpc-pbs.usc.edu
Username:         ramjan
Group:            hsc-ar
Job Name:         cpgcov_bam.0.sh
Session:          18855
Limits:           neednodes=1:ppn=8:dx340,nodes=1:ppn=8:dx340,walltime=48:00:00
Resources:        cput=00:56:13,mem=1848056kb,vmem=11295052kb,walltime=01:18:52
Queue:            laird_exe
End PBS Epilogue Thu Jun 14 15:20:59 PDT 2012
----------------------------------------
