----------------------------------------
Begin PBS Prologue Thu Jun 14 14:02:11 PDT 2012
Job ID:            1900846.hpc-pbs.usc.edu
Username:          ramjan
Group:             hsc-ar
Name:              cpgcov_bam.3.sh
Queue:             laird_exe
Shared Access:     yes
Nodes:             hpc1443 
TMPDIR:            /tmp/1900846.hpc-pbs.usc.edu
End PBS Prologue Thu Jun 14 14:02:11 PDT 2012
----------------------------------------
Warning: no access to tty (Bad file descriptor).
Thus no job control in this shell.
----------------------------------------
Begin PBS Epilogue Thu Jun 14 14:02:11 PDT 2012
Job ID:           1900846.hpc-pbs.usc.edu
Username:         ramjan
Group:            hsc-ar
Job Name:         cpgcov_bam.3.sh
Session:          28617
Limits:           neednodes=1:ppn=8:dx340,nodes=1:ppn=8:dx340,walltime=48:00:00
Resources:        cput=00:00:00,mem=0kb,vmem=0kb,walltime=00:00:00
Queue:            laird_exe
End PBS Epilogue Thu Jun 14 14:02:11 PDT 2012
----------------------------------------
