----------------------------------------
Begin PBS Prologue Thu Jun 14 14:02:28 PDT 2012
Job ID:            1900859.hpc-pbs.usc.edu
Username:          ramjan
Group:             hsc-ar
Name:              cpgcov_bam.16.sh
Queue:             laird_exe
Shared Access:     yes
Nodes:             hpc1430 
TMPDIR:            /tmp/1900859.hpc-pbs.usc.edu
End PBS Prologue Thu Jun 14 14:02:28 PDT 2012
----------------------------------------
Warning: no access to tty (Bad file descriptor).
Thus no job control in this shell.
----------------------------------------
Begin PBS Epilogue Thu Jun 14 15:17:35 PDT 2012
Job ID:           1900859.hpc-pbs.usc.edu
Username:         ramjan
Group:            hsc-ar
Job Name:         cpgcov_bam.16.sh
Session:          26433
Limits:           neednodes=1:ppn=8:dx340,nodes=1:ppn=8:dx340,walltime=48:00:00
Resources:        cput=00:46:58,mem=1484672kb,vmem=11296124kb,walltime=01:15:07
Queue:            laird_exe
End PBS Epilogue Thu Jun 14 15:17:35 PDT 2012
----------------------------------------
