----------------------------------------
Begin PBS Prologue Thu Jun 14 14:02:20 PDT 2012
Job ID:            1900853.hpc-pbs.usc.edu
Username:          ramjan
Group:             hsc-ar
Name:              cpgcov_bam.10.sh
Queue:             laird_exe
Shared Access:     yes
Nodes:             hpc1436 
TMPDIR:            /tmp/1900853.hpc-pbs.usc.edu
End PBS Prologue Thu Jun 14 14:02:20 PDT 2012
----------------------------------------
Warning: no access to tty (Bad file descriptor).
Thus no job control in this shell.
----------------------------------------
Begin PBS Epilogue Thu Jun 14 15:39:02 PDT 2012
Job ID:           1900853.hpc-pbs.usc.edu
Username:         ramjan
Group:            hsc-ar
Job Name:         cpgcov_bam.10.sh
Session:          27020
Limits:           neednodes=1:ppn=8:dx340,nodes=1:ppn=8:dx340,walltime=48:00:00
Resources:        cput=01:12:55,mem=3739532kb,vmem=11284896kb,walltime=01:36:42
Queue:            laird_exe
End PBS Epilogue Thu Jun 14 15:39:02 PDT 2012
----------------------------------------
