/home/uec-00/shared/production/software/uecgatk/default/uecgatk.pl -T CoverageDepth -R /home/uec-00/shared/production/genomes/hg19_rCRSchrm/hg19_rCRSchrm.fa -I /export/uec-gs1/laird/shared/production/ga/flowcells/81FRDABXX/run3/results/81FRDABXX/81FRDABXX_8_NIC1254A7/ResultCount_81FRDABXX_8_NIC1254A7.hg19_rCRSchrm.fa.bam --intervals /home/rcf-40/bberman/tumor/genomic-data-misc/CGIs/Takai_Jones_from_Fei_122007.fixed.PROMOTERONLY.oriented.hg19.bed -et NO_ET...
stdv=2.5694173269290275, mean=2.672446170128539 (/export/uec-gs1/laird/shared/production/ga/flowcells/81FRDABXX/run3/results/81FRDABXX/81FRDABXX_8_NIC1254A7/ResultCount_81FRDABXX_8_NIC1254A7.hg19_rCRSchrm.fa.bam)
CREATING temp file 0 (/home/rcf-40/bberman/tumor/genomic-data-misc/CGIs/Takai_Jones_from_Fei_122007.fixed.PROMOTERONLY.oriented.hg19.bed, 1000)
Saw 5590 pos strand and 5352 neg strand
/home/uec-00/shared/production/software/uecgatk/default/uecgatk.pl -T CoverageDepth -R /home/uec-00/shared/production/genomes/hg19_rCRSchrm/hg19_rCRSchrm.fa -I /export/uec-gs1/laird/shared/production/ga/flowcells/81FRDABXX/run3/results/81FRDABXX/81FRDABXX_8_NIC1254A7/ResultCount_81FRDABXX_8_NIC1254A7.hg19_rCRSchrm.fa.bam --intervals /tmp/MATCHEDBED.1nzHS3.bed -et NO_ET...
stdv=3.5041443059365966, mean=4.386758435934855 (/export/uec-gs1/laird/shared/production/ga/flowcells/81FRDABXX/run3/results/81FRDABXX/81FRDABXX_8_NIC1254A7/ResultCount_81FRDABXX_8_NIC1254A7.hg19_rCRSchrm.fa.bam)
/home/uec-00/shared/production/software/uecgatk/default/uecgatk.pl -T CoverageDepth -R /home/uec-00/shared/production/genomes/hg19_rCRSchrm/hg19_rCRSchrm.fa -I /export/uec-gs1/laird/shared/production/ga/flowcells/B031CABXX/run4/results/B031CABXX/B031CABXX_6_NIC1254A2/ResultCount_B031CABXX_6_NIC1254A2.hg19_rCRSchrm.fa.bam --intervals /home/rcf-40/bberman/tumor/genomic-data-misc/CGIs/Takai_Jones_from_Fei_122007.fixed.PROMOTERONLY.oriented.hg19.bed -et NO_ET...
stdv=4.2600122197696395, mean=6.142404548270555 (/export/uec-gs1/laird/shared/production/ga/flowcells/B031CABXX/run4/results/B031CABXX/B031CABXX_6_NIC1254A2/ResultCount_B031CABXX_6_NIC1254A2.hg19_rCRSchrm.fa.bam)
CREATING temp file 0 (/home/rcf-40/bberman/tumor/genomic-data-misc/CGIs/Takai_Jones_from_Fei_122007.fixed.PROMOTERONLY.oriented.hg19.bed, 1000)
Saw 5590 pos strand and 5352 neg strand
/home/uec-00/shared/production/software/uecgatk/default/uecgatk.pl -T CoverageDepth -R /home/uec-00/shared/production/genomes/hg19_rCRSchrm/hg19_rCRSchrm.fa -I /export/uec-gs1/laird/shared/production/ga/flowcells/B031CABXX/run4/results/B031CABXX/B031CABXX_6_NIC1254A2/ResultCount_B031CABXX_6_NIC1254A2.hg19_rCRSchrm.fa.bam --intervals /tmp/MATCHEDBED.seTNYZ.bed -et NO_ET...
stdv=4.2975270889345705, mean=5.9395044481394 (/export/uec-gs1/laird/shared/production/ga/flowcells/B031CABXX/run4/results/B031CABXX/B031CABXX_6_NIC1254A2/ResultCount_B031CABXX_6_NIC1254A2.hg19_rCRSchrm.fa.bam)
/home/uec-00/shared/production/software/uecgatk/default/uecgatk.pl -T CoverageDepth -R /home/uec-00/shared/production/genomes/hg19_rCRSchrm/hg19_rCRSchrm.fa -I /export/uec-gs1/laird/shared/production/ga/flowcells/B03BUABXX/run4/results/B03BUABXX/B03BUABXX_5_NIC1254A3/ResultCount_B03BUABXX_5_NIC1254A3.hg19_rCRSchrm.fa.bam --intervals /home/rcf-40/bberman/tumor/genomic-data-misc/CGIs/Takai_Jones_from_Fei_122007.fixed.PROMOTERONLY.oriented.hg19.bed -et NO_ET...
stdv=1.4289258604901631, mean=1.307339286824444 (/export/uec-gs1/laird/shared/production/ga/flowcells/B03BUABXX/run4/results/B03BUABXX/B03BUABXX_5_NIC1254A3/ResultCount_B03BUABXX_5_NIC1254A3.hg19_rCRSchrm.fa.bam)
CREATING temp file 0 (/home/rcf-40/bberman/tumor/genomic-data-misc/CGIs/Takai_Jones_from_Fei_122007.fixed.PROMOTERONLY.oriented.hg19.bed, 1000)
Saw 5590 pos strand and 5352 neg strand
/home/uec-00/shared/production/software/uecgatk/default/uecgatk.pl -T CoverageDepth -R /home/uec-00/shared/production/genomes/hg19_rCRSchrm/hg19_rCRSchrm.fa -I /export/uec-gs1/laird/shared/production/ga/flowcells/B03BUABXX/run4/results/B03BUABXX/B03BUABXX_5_NIC1254A3/ResultCount_B03BUABXX_5_NIC1254A3.hg19_rCRSchrm.fa.bam --intervals /tmp/MATCHEDBED.Pp4u9v.bed -et NO_ET...
stdv=1.6719233265936961, mean=1.6612903884561656 (/export/uec-gs1/laird/shared/production/ga/flowcells/B03BUABXX/run4/results/B03BUABXX/B03BUABXX_5_NIC1254A3/ResultCount_B03BUABXX_5_NIC1254A3.hg19_rCRSchrm.fa.bam)
/home/uec-00/shared/production/software/uecgatk/default/uecgatk.pl -T CoverageDepth -R /home/uec-00/shared/production/genomes/hg19_rCRSchrm/hg19_rCRSchrm.fa -I /export/uec-gs1/laird/shared/production/ga/flowcells/B046MABXX/run4/results/B046MABXX/B046MABXX_8_NIC1254A4/ResultCount_B046MABXX_8_NIC1254A4.hg19_rCRSchrm.fa.bam --intervals /home/rcf-40/bberman/tumor/genomic-data-misc/CGIs/Takai_Jones_from_Fei_122007.fixed.PROMOTERONLY.oriented.hg19.bed -et NO_ET...
stdv=0.9525825738776943, mean=0.6364665036607077 (/export/uec-gs1/laird/shared/production/ga/flowcells/B046MABXX/run4/results/B046MABXX/B046MABXX_8_NIC1254A4/ResultCount_B046MABXX_8_NIC1254A4.hg19_rCRSchrm.fa.bam)
CREATING temp file 0 (/home/rcf-40/bberman/tumor/genomic-data-misc/CGIs/Takai_Jones_from_Fei_122007.fixed.PROMOTERONLY.oriented.hg19.bed, 1000)
Saw 5590 pos strand and 5352 neg strand
/home/uec-00/shared/production/software/uecgatk/default/uecgatk.pl -T CoverageDepth -R /home/uec-00/shared/production/genomes/hg19_rCRSchrm/hg19_rCRSchrm.fa -I /export/uec-gs1/laird/shared/production/ga/flowcells/B046MABXX/run4/results/B046MABXX/B046MABXX_8_NIC1254A4/ResultCount_B046MABXX_8_NIC1254A4.hg19_rCRSchrm.fa.bam --intervals /tmp/MATCHEDBED.OXHZIf.bed -et NO_ET...
stdv=1.2737187053286794, mean=1.1205764346307037 (/export/uec-gs1/laird/shared/production/ga/flowcells/B046MABXX/run4/results/B046MABXX/B046MABXX_8_NIC1254A4/ResultCount_B046MABXX_8_NIC1254A4.hg19_rCRSchrm.fa.bam)
/home/uec-00/shared/production/software/uecgatk/default/uecgatk.pl -T CoverageDepth -R /home/uec-00/shared/production/genomes/hg19_rCRSchrm/hg19_rCRSchrm.fa -I /export/uec-gs1/laird/shared/production/ga/flowcells/B09UDABXX/run2/results/B09UDABXX/B09UDABXX_8_NIC1254A11/ResultCount_B09UDABXX_8_NIC1254A11.hg19_rCRSchrm.fa.bam --intervals /home/rcf-40/bberman/tumor/genomic-data-misc/CGIs/Takai_Jones_from_Fei_122007.fixed.PROMOTERONLY.oriented.hg19.bed -et NO_ET...
stdv=1.25538212529574, mean=0.8462423186090976 (/export/uec-gs1/laird/shared/production/ga/flowcells/B09UDABXX/run2/results/B09UDABXX/B09UDABXX_8_NIC1254A11/ResultCount_B09UDABXX_8_NIC1254A11.hg19_rCRSchrm.fa.bam)
CREATING temp file 0 (/home/rcf-40/bberman/tumor/genomic-data-misc/CGIs/Takai_Jones_from_Fei_122007.fixed.PROMOTERONLY.oriented.hg19.bed, 1000)
Saw 5590 pos strand and 5352 neg strand
/home/uec-00/shared/production/software/uecgatk/default/uecgatk.pl -T CoverageDepth -R /home/uec-00/shared/production/genomes/hg19_rCRSchrm/hg19_rCRSchrm.fa -I /export/uec-gs1/laird/shared/production/ga/flowcells/B09UDABXX/run2/results/B09UDABXX/B09UDABXX_8_NIC1254A11/ResultCount_B09UDABXX_8_NIC1254A11.hg19_rCRSchrm.fa.bam --intervals /tmp/MATCHEDBED.nNobtk.bed -et NO_ET...
stdv=1.4549038310493911, mean=1.368314321443275 (/export/uec-gs1/laird/shared/production/ga/flowcells/B09UDABXX/run2/results/B09UDABXX/B09UDABXX_8_NIC1254A11/ResultCount_B09UDABXX_8_NIC1254A11.hg19_rCRSchrm.fa.bam)
/home/uec-00/shared/production/software/uecgatk/default/uecgatk.pl -T CoverageDepth -R /home/uec-00/shared/production/genomes/hg19_rCRSchrm/hg19_rCRSchrm.fa -I /export/uec-gs1/laird/shared/production/ga/flowcells/C02EHACXX/results/C02EHACXX/C02EHACXX_1_NIC1254A12/ResultCount_C02EHACXX_1_NIC1254A12.hg19_rCRSchrm.fa.bam --intervals /home/rcf-40/bberman/tumor/genomic-data-misc/CGIs/Takai_Jones_from_Fei_122007.fixed.PROMOTERONLY.oriented.hg19.bed -et NO_ET...
stdv=0.882207534726918, mean=0.5348832585546425 (/export/uec-gs1/laird/shared/production/ga/flowcells/C02EHACXX/results/C02EHACXX/C02EHACXX_1_NIC1254A12/ResultCount_C02EHACXX_1_NIC1254A12.hg19_rCRSchrm.fa.bam)
CREATING temp file 0 (/home/rcf-40/bberman/tumor/genomic-data-misc/CGIs/Takai_Jones_from_Fei_122007.fixed.PROMOTERONLY.oriented.hg19.bed, 1000)
Saw 5590 pos strand and 5352 neg strand
/home/uec-00/shared/production/software/uecgatk/default/uecgatk.pl -T CoverageDepth -R /home/uec-00/shared/production/genomes/hg19_rCRSchrm/hg19_rCRSchrm.fa -I /export/uec-gs1/laird/shared/production/ga/flowcells/C02EHACXX/results/C02EHACXX/C02EHACXX_1_NIC1254A12/ResultCount_C02EHACXX_1_NIC1254A12.hg19_rCRSchrm.fa.bam --intervals /tmp/MATCHEDBED.5mtn0Z.bed -et NO_ET...
stdv=1.5179477335850788, mean=1.4490501559954112 (/export/uec-gs1/laird/shared/production/ga/flowcells/C02EHACXX/results/C02EHACXX/C02EHACXX_1_NIC1254A12/ResultCount_C02EHACXX_1_NIC1254A12.hg19_rCRSchrm.fa.bam)
/home/uec-00/shared/production/software/uecgatk/default/uecgatk.pl -T CoverageDepth -R /home/uec-00/shared/production/genomes/hg19_rCRSchrm/hg19_rCRSchrm.fa -I /export/uec-gs1/laird/shared/production/ga/flowcells/D099DACXX/results/D099DACXX/D099DACXX_7_NIC1254A17/ResultCount_D099DACXX_7_NIC1254A17.hg19_rCRSchrm.fa.bam --intervals /home/rcf-40/bberman/tumor/genomic-data-misc/CGIs/Takai_Jones_from_Fei_122007.fixed.PROMOTERONLY.oriented.hg19.bed -et NO_ET...
stdv=1.1336706754754928, mean=0.5929097725190755 (/export/uec-gs1/laird/shared/production/ga/flowcells/D099DACXX/results/D099DACXX/D099DACXX_7_NIC1254A17/ResultCount_D099DACXX_7_NIC1254A17.hg19_rCRSchrm.fa.bam)
CREATING temp file 0 (/home/rcf-40/bberman/tumor/genomic-data-misc/CGIs/Takai_Jones_from_Fei_122007.fixed.PROMOTERONLY.oriented.hg19.bed, 1000)
Saw 5590 pos strand and 5352 neg strand
/home/uec-00/shared/production/software/uecgatk/default/uecgatk.pl -T CoverageDepth -R /home/uec-00/shared/production/genomes/hg19_rCRSchrm/hg19_rCRSchrm.fa -I /export/uec-gs1/laird/shared/production/ga/flowcells/D099DACXX/results/D099DACXX/D099DACXX_7_NIC1254A17/ResultCount_D099DACXX_7_NIC1254A17.hg19_rCRSchrm.fa.bam --intervals /tmp/MATCHEDBED.NRt6Qh.bed -et NO_ET...
stdv=3.2204113515477153, mean=2.9939360603259626 (/export/uec-gs1/laird/shared/production/ga/flowcells/D099DACXX/results/D099DACXX/D099DACXX_7_NIC1254A17/ResultCount_D099DACXX_7_NIC1254A17.hg19_rCRSchrm.fa.bam)
/home/uec-00/shared/production/software/uecgatk/default/uecgatk.pl -T CoverageDepth -R /home/uec-00/shared/production/genomes/hg19_rCRSchrm/hg19_rCRSchrm.fa -I /export/uec-gs1/laird/shared/production/ga/flowcells/D0ECCACXX/results/D0ECCACXX/D0ECCACXX_2_KEL656A80/ResultCount_D0ECCACXX_2_KEL656A80.hg19_rCRSchrm.fa.bam --intervals /home/rcf-40/bberman/tumor/genomic-data-misc/CGIs/Takai_Jones_from_Fei_122007.fixed.PROMOTERONLY.oriented.hg19.bed -et NO_ET...
stdv=2.4662886694237782, mean=2.3915556295104183 (/export/uec-gs1/laird/shared/production/ga/flowcells/D0ECCACXX/results/D0ECCACXX/D0ECCACXX_2_KEL656A80/ResultCount_D0ECCACXX_2_KEL656A80.hg19_rCRSchrm.fa.bam)
CREATING temp file 0 (/home/rcf-40/bberman/tumor/genomic-data-misc/CGIs/Takai_Jones_from_Fei_122007.fixed.PROMOTERONLY.oriented.hg19.bed, 1000)
Saw 5590 pos strand and 5352 neg strand
/home/uec-00/shared/production/software/uecgatk/default/uecgatk.pl -T CoverageDepth -R /home/uec-00/shared/production/genomes/hg19_rCRSchrm/hg19_rCRSchrm.fa -I /export/uec-gs1/laird/shared/production/ga/flowcells/D0ECCACXX/results/D0ECCACXX/D0ECCACXX_2_KEL656A80/ResultCount_D0ECCACXX_2_KEL656A80.hg19_rCRSchrm.fa.bam --intervals /tmp/MATCHEDBED.xuXB1A.bed -et NO_ET...
stdv=5.497840043909118, mean=7.350534221997313 (/export/uec-gs1/laird/shared/production/ga/flowcells/D0ECCACXX/results/D0ECCACXX/D0ECCACXX_2_KEL656A80/ResultCount_D0ECCACXX_2_KEL656A80.hg19_rCRSchrm.fa.bam)
/home/uec-00/shared/production/software/uecgatk/default/uecgatk.pl -T CoverageDepth -R /home/uec-00/shared/production/genomes/hg19_rCRSchrm/hg19_rCRSchrm.fa -I /export/uec-gs1/laird/shared/production/ga/flowcells/D0FDGACXX/results/D0FDGACXX/D0FDGACXX_7_NIC1254A22/ResultCount_D0FDGACXX_7_NIC1254A22.hg19_rCRSchrm.fa.bam --intervals /home/rcf-40/bberman/tumor/genomic-data-misc/CGIs/Takai_Jones_from_Fei_122007.fixed.PROMOTERONLY.oriented.hg19.bed -et NO_ET...
stdv=6.125178246380306, mean=0.09575037160146271 (/export/uec-gs1/laird/shared/production/ga/flowcells/D0FDGACXX/results/D0FDGACXX/D0FDGACXX_7_NIC1254A22/ResultCount_D0FDGACXX_7_NIC1254A22.hg19_rCRSchrm.fa.bam)
CREATING temp file 0 (/home/rcf-40/bberman/tumor/genomic-data-misc/CGIs/Takai_Jones_from_Fei_122007.fixed.PROMOTERONLY.oriented.hg19.bed, 1000)
Saw 5590 pos strand and 5352 neg strand
/home/uec-00/shared/production/software/uecgatk/default/uecgatk.pl -T CoverageDepth -R /home/uec-00/shared/production/genomes/hg19_rCRSchrm/hg19_rCRSchrm.fa -I /export/uec-gs1/laird/shared/production/ga/flowcells/D0FDGACXX/results/D0FDGACXX/D0FDGACXX_7_NIC1254A22/ResultCount_D0FDGACXX_7_NIC1254A22.hg19_rCRSchrm.fa.bam --intervals /tmp/MATCHEDBED.HdJSJo.bed -et NO_ET...
stdv=4.058556698769627, mean=0.04548495484131308 (/export/uec-gs1/laird/shared/production/ga/flowcells/D0FDGACXX/results/D0FDGACXX/D0FDGACXX_7_NIC1254A22/ResultCount_D0FDGACXX_7_NIC1254A22.hg19_rCRSchrm.fa.bam)
/home/uec-00/shared/production/software/uecgatk/default/uecgatk.pl -T CoverageDepth -R /home/uec-00/shared/production/genomes/hg19_rCRSchrm/hg19_rCRSchrm.fa -I /export/uec-gs1/laird/shared/production/ga/flowcells/D0JTRACXX/run1/results/D0JTRACXX/D0JTRACXX_8_COR1406A14/ResultCount_D0JTRACXX_8_COR1406A14.hg19_rCRSchrm.fa.bam --intervals /home/rcf-40/bberman/tumor/genomic-data-misc/CGIs/Takai_Jones_from_Fei_122007.fixed.PROMOTERONLY.oriented.hg19.bed -et NO_ET...
stdv=2.9429825318895904, mean=0.7193566284285585 (/export/uec-gs1/laird/shared/production/ga/flowcells/D0JTRACXX/run1/results/D0JTRACXX/D0JTRACXX_8_COR1406A14/ResultCount_D0JTRACXX_8_COR1406A14.hg19_rCRSchrm.fa.bam)
CREATING temp file 0 (/home/rcf-40/bberman/tumor/genomic-data-misc/CGIs/Takai_Jones_from_Fei_122007.fixed.PROMOTERONLY.oriented.hg19.bed, 1000)
Saw 5590 pos strand and 5352 neg strand
/home/uec-00/shared/production/software/uecgatk/default/uecgatk.pl -T CoverageDepth -R /home/uec-00/shared/production/genomes/hg19_rCRSchrm/hg19_rCRSchrm.fa -I /export/uec-gs1/laird/shared/production/ga/flowcells/D0JTRACXX/run1/results/D0JTRACXX/D0JTRACXX_8_COR1406A14/ResultCount_D0JTRACXX_8_COR1406A14.hg19_rCRSchrm.fa.bam --intervals /tmp/MATCHEDBED.ikih1W.bed -et NO_ET...
stdv=10.958265925195146, mean=3.338102998308256 (/export/uec-gs1/laird/shared/production/ga/flowcells/D0JTRACXX/run1/results/D0JTRACXX/D0JTRACXX_8_COR1406A14/ResultCount_D0JTRACXX_8_COR1406A14.hg19_rCRSchrm.fa.bam)
/home/uec-00/shared/production/software/uecgatk/default/uecgatk.pl -T CoverageDepth -R /home/uec-00/shared/production/genomes/hg19_rCRSchrm/hg19_rCRSchrm.fa -I /export/uec-gs1/laird/shared/production/ga/flowcells/C0J2KACXX/results/C0J2KACXX/C0J2KACXX_6_KEL656A141/ResultCount_C0J2KACXX_6_KEL656A141.hg19_rCRSchrm.fa.bam --intervals /home/rcf-40/bberman/tumor/genomic-data-misc/CGIs/Takai_Jones_from_Fei_122007.fixed.PROMOTERONLY.oriented.hg19.bed -et NO_ET...
stdv=0.0, mean=0.0 (/export/uec-gs1/laird/shared/production/ga/flowcells/C0J2KACXX/results/C0J2KACXX/C0J2KACXX_6_KEL656A141/ResultCount_C0J2KACXX_6_KEL656A141.hg19_rCRSchrm.fa.bam)
CREATING temp file 0 (/home/rcf-40/bberman/tumor/genomic-data-misc/CGIs/Takai_Jones_from_Fei_122007.fixed.PROMOTERONLY.oriented.hg19.bed, 1000)
Saw 5590 pos strand and 5352 neg strand
/home/uec-00/shared/production/software/uecgatk/default/uecgatk.pl -T CoverageDepth -R /home/uec-00/shared/production/genomes/hg19_rCRSchrm/hg19_rCRSchrm.fa -I /export/uec-gs1/laird/shared/production/ga/flowcells/C0J2KACXX/results/C0J2KACXX/C0J2KACXX_6_KEL656A141/ResultCount_C0J2KACXX_6_KEL656A141.hg19_rCRSchrm.fa.bam --intervals /tmp/MATCHEDBED.UEAV1d.bed -et NO_ET...
stdv=0.0, mean=0.0 (/export/uec-gs1/laird/shared/production/ga/flowcells/C0J2KACXX/results/C0J2KACXX/C0J2KACXX_6_KEL656A141/ResultCount_C0J2KACXX_6_KEL656A141.hg19_rCRSchrm.fa.bam)
Illegal division by zero at /home/uec-00/shared/production/software/perl_utils_usc/bamToElementEnrichment.pl line 59, <BEDF> line 10942.
