/home/uec-00/shared/production/software/uecgatk/default/uecgatk.pl -T CoverageDepth -R /home/uec-00/shared/production/genomes/hg19_rCRSchrm/hg19_rCRSchrm.fa -I /export/uec-gs1/laird/shared/production/ga/flowcells/64YF8AAXX/results/64YF8AAXX/64YF8AAXX_7_CHO1364A11/ResultCount_64YF8AAXX_7_CHO1364A11.hg19_rCRSchrm.fa.bam --intervals /home/rcf-40/bberman/tumor/genomic-data-misc/CGIs/Takai_Jones_from_Fei_122007.fixed.PROMOTERONLY.oriented.hg19.bed -et NO_ET...
stdv=18.772657359716764, mean=11.367453106540204 (/export/uec-gs1/laird/shared/production/ga/flowcells/64YF8AAXX/results/64YF8AAXX/64YF8AAXX_7_CHO1364A11/ResultCount_64YF8AAXX_7_CHO1364A11.hg19_rCRSchrm.fa.bam)
CREATING temp file 0 (/home/rcf-40/bberman/tumor/genomic-data-misc/CGIs/Takai_Jones_from_Fei_122007.fixed.PROMOTERONLY.oriented.hg19.bed, 1000)
Saw 5590 pos strand and 5352 neg strand
/home/uec-00/shared/production/software/uecgatk/default/uecgatk.pl -T CoverageDepth -R /home/uec-00/shared/production/genomes/hg19_rCRSchrm/hg19_rCRSchrm.fa -I /export/uec-gs1/laird/shared/production/ga/flowcells/64YF8AAXX/results/64YF8AAXX/64YF8AAXX_7_CHO1364A11/ResultCount_64YF8AAXX_7_CHO1364A11.hg19_rCRSchrm.fa.bam --intervals /tmp/MATCHEDBED.6OpPG3.bed -et NO_ET...
stdv=6.616217914563351, mean=1.2209928280429596 (/export/uec-gs1/laird/shared/production/ga/flowcells/64YF8AAXX/results/64YF8AAXX/64YF8AAXX_7_CHO1364A11/ResultCount_64YF8AAXX_7_CHO1364A11.hg19_rCRSchrm.fa.bam)
/home/uec-00/shared/production/software/uecgatk/default/uecgatk.pl -T CoverageDepth -R /home/uec-00/shared/production/genomes/hg19_rCRSchrm/hg19_rCRSchrm.fa -I /export/uec-gs1/laird/shared/production/ga/flowcells/B031CABXX/run4/results/B031CABXX/B031CABXX_1_NIC1254A1/ResultCount_B031CABXX_1_NIC1254A1.hg19_rCRSchrm.fa.bam --intervals /home/rcf-40/bberman/tumor/genomic-data-misc/CGIs/Takai_Jones_from_Fei_122007.fixed.PROMOTERONLY.oriented.hg19.bed -et NO_ET...
stdv=3.8932464069685073, mean=5.806937015796651 (/export/uec-gs1/laird/shared/production/ga/flowcells/B031CABXX/run4/results/B031CABXX/B031CABXX_1_NIC1254A1/ResultCount_B031CABXX_1_NIC1254A1.hg19_rCRSchrm.fa.bam)
CREATING temp file 0 (/home/rcf-40/bberman/tumor/genomic-data-misc/CGIs/Takai_Jones_from_Fei_122007.fixed.PROMOTERONLY.oriented.hg19.bed, 1000)
Saw 5590 pos strand and 5352 neg strand
/home/uec-00/shared/production/software/uecgatk/default/uecgatk.pl -T CoverageDepth -R /home/uec-00/shared/production/genomes/hg19_rCRSchrm/hg19_rCRSchrm.fa -I /export/uec-gs1/laird/shared/production/ga/flowcells/B031CABXX/run4/results/B031CABXX/B031CABXX_1_NIC1254A1/ResultCount_B031CABXX_1_NIC1254A1.hg19_rCRSchrm.fa.bam --intervals /tmp/MATCHEDBED.vDYGOh.bed -et NO_ET...
stdv=4.586216839819952, mean=7.4678159924964245 (/export/uec-gs1/laird/shared/production/ga/flowcells/B031CABXX/run4/results/B031CABXX/B031CABXX_1_NIC1254A1/ResultCount_B031CABXX_1_NIC1254A1.hg19_rCRSchrm.fa.bam)
/home/uec-00/shared/production/software/uecgatk/default/uecgatk.pl -T CoverageDepth -R /home/uec-00/shared/production/genomes/hg19_rCRSchrm/hg19_rCRSchrm.fa -I /export/uec-gs1/laird/shared/production/ga/flowcells/B038HABXX/run6/results/B038HABXX/B038HABXX_6_NIC1252A29/ResultCount_B038HABXX_6_NIC1252A29.hg19_rCRSchrm.fa.bam --intervals /home/rcf-40/bberman/tumor/genomic-data-misc/CGIs/Takai_Jones_from_Fei_122007.fixed.PROMOTERONLY.oriented.hg19.bed -et NO_ET...
stdv=2.5157724897257516, mean=1.399321723522509 (/export/uec-gs1/laird/shared/production/ga/flowcells/B038HABXX/run6/results/B038HABXX/B038HABXX_6_NIC1252A29/ResultCount_B038HABXX_6_NIC1252A29.hg19_rCRSchrm.fa.bam)
CREATING temp file 0 (/home/rcf-40/bberman/tumor/genomic-data-misc/CGIs/Takai_Jones_from_Fei_122007.fixed.PROMOTERONLY.oriented.hg19.bed, 1000)
Saw 5590 pos strand and 5352 neg strand
/home/uec-00/shared/production/software/uecgatk/default/uecgatk.pl -T CoverageDepth -R /home/uec-00/shared/production/genomes/hg19_rCRSchrm/hg19_rCRSchrm.fa -I /export/uec-gs1/laird/shared/production/ga/flowcells/B038HABXX/run6/results/B038HABXX/B038HABXX_6_NIC1252A29/ResultCount_B038HABXX_6_NIC1252A29.hg19_rCRSchrm.fa.bam --intervals /tmp/MATCHEDBED.Pe78Pj.bed -et NO_ET...
stdv=8.009029539436673, mean=3.3536986545409877 (/export/uec-gs1/laird/shared/production/ga/flowcells/B038HABXX/run6/results/B038HABXX/B038HABXX_6_NIC1252A29/ResultCount_B038HABXX_6_NIC1252A29.hg19_rCRSchrm.fa.bam)
/home/uec-00/shared/production/software/uecgatk/default/uecgatk.pl -T CoverageDepth -R /home/uec-00/shared/production/genomes/hg19_rCRSchrm/hg19_rCRSchrm.fa -I /export/uec-gs1/laird/shared/production/ga/flowcells/B046MABXX/run4/results/B046MABXX/B046MABXX_1_NIC1254A3/ResultCount_B046MABXX_1_NIC1254A3.hg19_rCRSchrm.fa.bam --intervals /home/rcf-40/bberman/tumor/genomic-data-misc/CGIs/Takai_Jones_from_Fei_122007.fixed.PROMOTERONLY.oriented.hg19.bed -et NO_ET...
stdv=1.309920741806692, mean=1.0441433246152982 (/export/uec-gs1/laird/shared/production/ga/flowcells/B046MABXX/run4/results/B046MABXX/B046MABXX_1_NIC1254A3/ResultCount_B046MABXX_1_NIC1254A3.hg19_rCRSchrm.fa.bam)
CREATING temp file 0 (/home/rcf-40/bberman/tumor/genomic-data-misc/CGIs/Takai_Jones_from_Fei_122007.fixed.PROMOTERONLY.oriented.hg19.bed, 1000)
Saw 5590 pos strand and 5352 neg strand
/home/uec-00/shared/production/software/uecgatk/default/uecgatk.pl -T CoverageDepth -R /home/uec-00/shared/production/genomes/hg19_rCRSchrm/hg19_rCRSchrm.fa -I /export/uec-gs1/laird/shared/production/ga/flowcells/B046MABXX/run4/results/B046MABXX/B046MABXX_1_NIC1254A3/ResultCount_B046MABXX_1_NIC1254A3.hg19_rCRSchrm.fa.bam --intervals /tmp/MATCHEDBED.cihOT9.bed -et NO_ET...
stdv=1.5254134311778662, mean=1.3382441960030695 (/export/uec-gs1/laird/shared/production/ga/flowcells/B046MABXX/run4/results/B046MABXX/B046MABXX_1_NIC1254A3/ResultCount_B046MABXX_1_NIC1254A3.hg19_rCRSchrm.fa.bam)
/home/uec-00/shared/production/software/uecgatk/default/uecgatk.pl -T CoverageDepth -R /home/uec-00/shared/production/genomes/hg19_rCRSchrm/hg19_rCRSchrm.fa -I /export/uec-gs1/laird/shared/production/ga/flowcells/B09UDABXX/run2/results/B09UDABXX/B09UDABXX_3_NIC1254A10/ResultCount_B09UDABXX_3_NIC1254A10.hg19_rCRSchrm.fa.bam --intervals /home/rcf-40/bberman/tumor/genomic-data-misc/CGIs/Takai_Jones_from_Fei_122007.fixed.PROMOTERONLY.oriented.hg19.bed -et NO_ET...
stdv=1.4946758299557223, mean=1.2429369859712058 (/export/uec-gs1/laird/shared/production/ga/flowcells/B09UDABXX/run2/results/B09UDABXX/B09UDABXX_3_NIC1254A10/ResultCount_B09UDABXX_3_NIC1254A10.hg19_rCRSchrm.fa.bam)
CREATING temp file 0 (/home/rcf-40/bberman/tumor/genomic-data-misc/CGIs/Takai_Jones_from_Fei_122007.fixed.PROMOTERONLY.oriented.hg19.bed, 1000)
Saw 5590 pos strand and 5352 neg strand
/home/uec-00/shared/production/software/uecgatk/default/uecgatk.pl -T CoverageDepth -R /home/uec-00/shared/production/genomes/hg19_rCRSchrm/hg19_rCRSchrm.fa -I /export/uec-gs1/laird/shared/production/ga/flowcells/B09UDABXX/run2/results/B09UDABXX/B09UDABXX_3_NIC1254A10/ResultCount_B09UDABXX_3_NIC1254A10.hg19_rCRSchrm.fa.bam --intervals /tmp/MATCHEDBED.9XlmMU.bed -et NO_ET...
stdv=1.9193186798753326, mean=1.885025492716997 (/export/uec-gs1/laird/shared/production/ga/flowcells/B09UDABXX/run2/results/B09UDABXX/B09UDABXX_3_NIC1254A10/ResultCount_B09UDABXX_3_NIC1254A10.hg19_rCRSchrm.fa.bam)
/home/uec-00/shared/production/software/uecgatk/default/uecgatk.pl -T CoverageDepth -R /home/uec-00/shared/production/genomes/hg19_rCRSchrm/hg19_rCRSchrm.fa -I /export/uec-gs1/laird/shared/production/ga/flowcells/C02EHACXX/results/C02EHACXX/C02EHACXX_8_NIC1254A11/ResultCount_C02EHACXX_8_NIC1254A11.hg19_rCRSchrm.fa.bam --intervals /home/rcf-40/bberman/tumor/genomic-data-misc/CGIs/Takai_Jones_from_Fei_122007.fixed.PROMOTERONLY.oriented.hg19.bed -et NO_ET...
stdv=2.452332748959405, mean=2.706007616447256 (/export/uec-gs1/laird/shared/production/ga/flowcells/C02EHACXX/results/C02EHACXX/C02EHACXX_8_NIC1254A11/ResultCount_C02EHACXX_8_NIC1254A11.hg19_rCRSchrm.fa.bam)
CREATING temp file 0 (/home/rcf-40/bberman/tumor/genomic-data-misc/CGIs/Takai_Jones_from_Fei_122007.fixed.PROMOTERONLY.oriented.hg19.bed, 1000)
Saw 5590 pos strand and 5352 neg strand
/home/uec-00/shared/production/software/uecgatk/default/uecgatk.pl -T CoverageDepth -R /home/uec-00/shared/production/genomes/hg19_rCRSchrm/hg19_rCRSchrm.fa -I /export/uec-gs1/laird/shared/production/ga/flowcells/C02EHACXX/results/C02EHACXX/C02EHACXX_8_NIC1254A11/ResultCount_C02EHACXX_8_NIC1254A11.hg19_rCRSchrm.fa.bam --intervals /tmp/MATCHEDBED.vO5yc2.bed -et NO_ET...
stdv=3.913530468976781, mean=5.6473519715959215 (/export/uec-gs1/laird/shared/production/ga/flowcells/C02EHACXX/results/C02EHACXX/C02EHACXX_8_NIC1254A11/ResultCount_C02EHACXX_8_NIC1254A11.hg19_rCRSchrm.fa.bam)
/home/uec-00/shared/production/software/uecgatk/default/uecgatk.pl -T CoverageDepth -R /home/uec-00/shared/production/genomes/hg19_rCRSchrm/hg19_rCRSchrm.fa -I /export/uec-gs1/laird/shared/production/ga/flowcells/C093GACXX/results/C093GACXX/C093GACXX_3_NIC1254A12/ResultCount_C093GACXX_3_NIC1254A12.hg19_rCRSchrm.fa.bam --intervals /home/rcf-40/bberman/tumor/genomic-data-misc/CGIs/Takai_Jones_from_Fei_122007.fixed.PROMOTERONLY.oriented.hg19.bed -et NO_ET...
stdv=2.339026309684896, mean=2.20656909389616 (/export/uec-gs1/laird/shared/production/ga/flowcells/C093GACXX/results/C093GACXX/C093GACXX_3_NIC1254A12/ResultCount_C093GACXX_3_NIC1254A12.hg19_rCRSchrm.fa.bam)
CREATING temp file 0 (/home/rcf-40/bberman/tumor/genomic-data-misc/CGIs/Takai_Jones_from_Fei_122007.fixed.PROMOTERONLY.oriented.hg19.bed, 1000)
Saw 5590 pos strand and 5352 neg strand
/home/uec-00/shared/production/software/uecgatk/default/uecgatk.pl -T CoverageDepth -R /home/uec-00/shared/production/genomes/hg19_rCRSchrm/hg19_rCRSchrm.fa -I /export/uec-gs1/laird/shared/production/ga/flowcells/C093GACXX/results/C093GACXX/C093GACXX_3_NIC1254A12/ResultCount_C093GACXX_3_NIC1254A12.hg19_rCRSchrm.fa.bam --intervals /tmp/MATCHEDBED.jfXuzN.bed -et NO_ET...
stdv=5.220841219883087, mean=7.948274211369602 (/export/uec-gs1/laird/shared/production/ga/flowcells/C093GACXX/results/C093GACXX/C093GACXX_3_NIC1254A12/ResultCount_C093GACXX_3_NIC1254A12.hg19_rCRSchrm.fa.bam)
/home/uec-00/shared/production/software/uecgatk/default/uecgatk.pl -T CoverageDepth -R /home/uec-00/shared/production/genomes/hg19_rCRSchrm/hg19_rCRSchrm.fa -I /export/uec-gs1/laird/shared/production/ga/flowcells/C0B20ACXX/results/C0B20ACXX/C0B20ACXX_8_KEL656A83/ResultCount_C0B20ACXX_8_KEL656A83.hg19_rCRSchrm.fa.bam --intervals /home/rcf-40/bberman/tumor/genomic-data-misc/CGIs/Takai_Jones_from_Fei_122007.fixed.PROMOTERONLY.oriented.hg19.bed -et NO_ET...
stdv=1.2288341042584185, mean=0.786632100153519 (/export/uec-gs1/laird/shared/production/ga/flowcells/C0B20ACXX/results/C0B20ACXX/C0B20ACXX_8_KEL656A83/ResultCount_C0B20ACXX_8_KEL656A83.hg19_rCRSchrm.fa.bam)
CREATING temp file 0 (/home/rcf-40/bberman/tumor/genomic-data-misc/CGIs/Takai_Jones_from_Fei_122007.fixed.PROMOTERONLY.oriented.hg19.bed, 1000)
Saw 5590 pos strand and 5352 neg strand
/home/uec-00/shared/production/software/uecgatk/default/uecgatk.pl -T CoverageDepth -R /home/uec-00/shared/production/genomes/hg19_rCRSchrm/hg19_rCRSchrm.fa -I /export/uec-gs1/laird/shared/production/ga/flowcells/C0B20ACXX/results/C0B20ACXX/C0B20ACXX_8_KEL656A83/ResultCount_C0B20ACXX_8_KEL656A83.hg19_rCRSchrm.fa.bam --intervals /tmp/MATCHEDBED.PQv4cn.bed -et NO_ET...
stdv=2.8590463367124843, mean=2.913946826788485 (/export/uec-gs1/laird/shared/production/ga/flowcells/C0B20ACXX/results/C0B20ACXX/C0B20ACXX_8_KEL656A83/ResultCount_C0B20ACXX_8_KEL656A83.hg19_rCRSchrm.fa.bam)
/home/uec-00/shared/production/software/uecgatk/default/uecgatk.pl -T CoverageDepth -R /home/uec-00/shared/production/genomes/hg19_rCRSchrm/hg19_rCRSchrm.fa -I /export/uec-gs1/laird/shared/production/ga/flowcells/D099DACXX/results/D099DACXX/D099DACXX_2_NIC1254A14/ResultCount_D099DACXX_2_NIC1254A14.hg19_rCRSchrm.fa.bam --intervals /home/rcf-40/bberman/tumor/genomic-data-misc/CGIs/Takai_Jones_from_Fei_122007.fixed.PROMOTERONLY.oriented.hg19.bed -et NO_ET...
stdv=1.4477646127698256, mean=1.047555492733525 (/export/uec-gs1/laird/shared/production/ga/flowcells/D099DACXX/results/D099DACXX/D099DACXX_2_NIC1254A14/ResultCount_D099DACXX_2_NIC1254A14.hg19_rCRSchrm.fa.bam)
CREATING temp file 0 (/home/rcf-40/bberman/tumor/genomic-data-misc/CGIs/Takai_Jones_from_Fei_122007.fixed.PROMOTERONLY.oriented.hg19.bed, 1000)
Saw 5590 pos strand and 5352 neg strand
/home/uec-00/shared/production/software/uecgatk/default/uecgatk.pl -T CoverageDepth -R /home/uec-00/shared/production/genomes/hg19_rCRSchrm/hg19_rCRSchrm.fa -I /export/uec-gs1/laird/shared/production/ga/flowcells/D099DACXX/results/D099DACXX/D099DACXX_2_NIC1254A14/ResultCount_D099DACXX_2_NIC1254A14.hg19_rCRSchrm.fa.bam --intervals /tmp/MATCHEDBED.vfCKSv.bed -et NO_ET...
stdv=3.23753255852937, mean=3.6984498198321893 (/export/uec-gs1/laird/shared/production/ga/flowcells/D099DACXX/results/D099DACXX/D099DACXX_2_NIC1254A14/ResultCount_D099DACXX_2_NIC1254A14.hg19_rCRSchrm.fa.bam)
/home/uec-00/shared/production/software/uecgatk/default/uecgatk.pl -T CoverageDepth -R /home/uec-00/shared/production/genomes/hg19_rCRSchrm/hg19_rCRSchrm.fa -I /export/uec-gs1/laird/shared/production/ga/flowcells/D09AYACXX/results/D09AYACXX/D09AYACXX_5_KEL656A82/ResultCount_D09AYACXX_5_KEL656A82.hg19_rCRSchrm.fa.bam --intervals /home/rcf-40/bberman/tumor/genomic-data-misc/CGIs/Takai_Jones_from_Fei_122007.fixed.PROMOTERONLY.oriented.hg19.bed -et NO_ET...
stdv=0.0, mean=0.0 (/export/uec-gs1/laird/shared/production/ga/flowcells/D09AYACXX/results/D09AYACXX/D09AYACXX_5_KEL656A82/ResultCount_D09AYACXX_5_KEL656A82.hg19_rCRSchrm.fa.bam)
CREATING temp file 0 (/home/rcf-40/bberman/tumor/genomic-data-misc/CGIs/Takai_Jones_from_Fei_122007.fixed.PROMOTERONLY.oriented.hg19.bed, 1000)
Saw 5590 pos strand and 5352 neg strand
/home/uec-00/shared/production/software/uecgatk/default/uecgatk.pl -T CoverageDepth -R /home/uec-00/shared/production/genomes/hg19_rCRSchrm/hg19_rCRSchrm.fa -I /export/uec-gs1/laird/shared/production/ga/flowcells/D09AYACXX/results/D09AYACXX/D09AYACXX_5_KEL656A82/ResultCount_D09AYACXX_5_KEL656A82.hg19_rCRSchrm.fa.bam --intervals /tmp/MATCHEDBED.ySbpIE.bed -et NO_ET...
stdv=0.0, mean=0.0 (/export/uec-gs1/laird/shared/production/ga/flowcells/D09AYACXX/results/D09AYACXX/D09AYACXX_5_KEL656A82/ResultCount_D09AYACXX_5_KEL656A82.hg19_rCRSchrm.fa.bam)
Illegal division by zero at /home/uec-00/shared/production/software/perl_utils_usc/bamToElementEnrichment.pl line 59, <BEDF> line 10942.
/home/uec-00/shared/production/software/uecgatk/default/uecgatk.pl -T CoverageDepth -R /home/uec-00/shared/production/genomes/hg19_rCRSchrm/hg19_rCRSchrm.fa -I /export/uec-gs1/laird/shared/production/ga/flowcells/D0FDGACXX/results/D0FDGACXX/D0FDGACXX_7_KEL656A85/ResultCount_D0FDGACXX_7_KEL656A85.hg19_rCRSchrm.fa.bam --intervals /home/rcf-40/bberman/tumor/genomic-data-misc/CGIs/Takai_Jones_from_Fei_122007.fixed.PROMOTERONLY.oriented.hg19.bed -et NO_ET...
stdv=0.8723287286331228, mean=0.6181995654402591 (/export/uec-gs1/laird/shared/production/ga/flowcells/D0FDGACXX/results/D0FDGACXX/D0FDGACXX_7_KEL656A85/ResultCount_D0FDGACXX_7_KEL656A85.hg19_rCRSchrm.fa.bam)
CREATING temp file 0 (/home/rcf-40/bberman/tumor/genomic-data-misc/CGIs/Takai_Jones_from_Fei_122007.fixed.PROMOTERONLY.oriented.hg19.bed, 1000)
Saw 5590 pos strand and 5352 neg strand
/home/uec-00/shared/production/software/uecgatk/default/uecgatk.pl -T CoverageDepth -R /home/uec-00/shared/production/genomes/hg19_rCRSchrm/hg19_rCRSchrm.fa -I /export/uec-gs1/laird/shared/production/ga/flowcells/D0FDGACXX/results/D0FDGACXX/D0FDGACXX_7_KEL656A85/ResultCount_D0FDGACXX_7_KEL656A85.hg19_rCRSchrm.fa.bam --intervals /tmp/MATCHEDBED.u6UVRW.bed -et NO_ET...
stdv=1.4521992920640046, mean=1.4012298798664915 (/export/uec-gs1/laird/shared/production/ga/flowcells/D0FDGACXX/results/D0FDGACXX/D0FDGACXX_7_KEL656A85/ResultCount_D0FDGACXX_7_KEL656A85.hg19_rCRSchrm.fa.bam)
/home/uec-00/shared/production/software/uecgatk/default/uecgatk.pl -T CoverageDepth -R /home/uec-00/shared/production/genomes/hg19_rCRSchrm/hg19_rCRSchrm.fa -I /export/uec-gs1/laird/shared/production/ga/flowcells/C0J2KACXX/results/C0J2KACXX/C0J2KACXX_6_KEL656A133/ResultCount_C0J2KACXX_6_KEL656A133.hg19_rCRSchrm.fa.bam --intervals /home/rcf-40/bberman/tumor/genomic-data-misc/CGIs/Takai_Jones_from_Fei_122007.fixed.PROMOTERONLY.oriented.hg19.bed -et NO_ET...
stdv=0.0, mean=0.0 (/export/uec-gs1/laird/shared/production/ga/flowcells/C0J2KACXX/results/C0J2KACXX/C0J2KACXX_6_KEL656A133/ResultCount_C0J2KACXX_6_KEL656A133.hg19_rCRSchrm.fa.bam)
CREATING temp file 0 (/home/rcf-40/bberman/tumor/genomic-data-misc/CGIs/Takai_Jones_from_Fei_122007.fixed.PROMOTERONLY.oriented.hg19.bed, 1000)
Saw 5590 pos strand and 5352 neg strand
/home/uec-00/shared/production/software/uecgatk/default/uecgatk.pl -T CoverageDepth -R /home/uec-00/shared/production/genomes/hg19_rCRSchrm/hg19_rCRSchrm.fa -I /export/uec-gs1/laird/shared/production/ga/flowcells/C0J2KACXX/results/C0J2KACXX/C0J2KACXX_6_KEL656A133/ResultCount_C0J2KACXX_6_KEL656A133.hg19_rCRSchrm.fa.bam --intervals /tmp/MATCHEDBED.4j4P56.bed -et NO_ET...
stdv=0.0, mean=0.0 (/export/uec-gs1/laird/shared/production/ga/flowcells/C0J2KACXX/results/C0J2KACXX/C0J2KACXX_6_KEL656A133/ResultCount_C0J2KACXX_6_KEL656A133.hg19_rCRSchrm.fa.bam)
Illegal division by zero at /home/uec-00/shared/production/software/perl_utils_usc/bamToElementEnrichment.pl line 59, <BEDF> line 10942.
/home/uec-00/shared/production/software/uecgatk/default/uecgatk.pl -T CoverageDepth -R /home/uec-00/shared/production/genomes/hg19_rCRSchrm/hg19_rCRSchrm.fa -I /export/uec-gs1/laird/shared/production/ga/flowcells/C0J2KACXX/results/C0J2KACXX/C0J2KACXX_5_KEL656A143/ResultCount_C0J2KACXX_5_KEL656A143.hg19_rCRSchrm.fa.bam --intervals /home/rcf-40/bberman/tumor/genomic-data-misc/CGIs/Takai_Jones_from_Fei_122007.fixed.PROMOTERONLY.oriented.hg19.bed -et NO_ET...
stdv=0.0, mean=0.0 (/export/uec-gs1/laird/shared/production/ga/flowcells/C0J2KACXX/results/C0J2KACXX/C0J2KACXX_5_KEL656A143/ResultCount_C0J2KACXX_5_KEL656A143.hg19_rCRSchrm.fa.bam)
CREATING temp file 0 (/home/rcf-40/bberman/tumor/genomic-data-misc/CGIs/Takai_Jones_from_Fei_122007.fixed.PROMOTERONLY.oriented.hg19.bed, 1000)
Saw 5590 pos strand and 5352 neg strand
/home/uec-00/shared/production/software/uecgatk/default/uecgatk.pl -T CoverageDepth -R /home/uec-00/shared/production/genomes/hg19_rCRSchrm/hg19_rCRSchrm.fa -I /export/uec-gs1/laird/shared/production/ga/flowcells/C0J2KACXX/results/C0J2KACXX/C0J2KACXX_5_KEL656A143/ResultCount_C0J2KACXX_5_KEL656A143.hg19_rCRSchrm.fa.bam --intervals /tmp/MATCHEDBED.gnfwuv.bed -et NO_ET...
stdv=0.0, mean=0.0 (/export/uec-gs1/laird/shared/production/ga/flowcells/C0J2KACXX/results/C0J2KACXX/C0J2KACXX_5_KEL656A143/ResultCount_C0J2KACXX_5_KEL656A143.hg19_rCRSchrm.fa.bam)
Illegal division by zero at /home/uec-00/shared/production/software/perl_utils_usc/bamToElementEnrichment.pl line 59, <BEDF> line 10942.
