identicalReadCounts,-5,1
identicalReadCounts,-4,2
identicalReadCounts,-3,10
identicalReadCounts,-2,67
identicalReadCounts,-1,150010
identicalReadCounts,1,149677
identicalReadCounts,2,56
identicalReadCounts,3,5
identicalReadCounts,4,1
