identicalReadCounts,-77,1
identicalReadCounts,-76,1
identicalReadCounts,-75,1
identicalReadCounts,-74,1
identicalReadCounts,-73,1
identicalReadCounts,-72,2
identicalReadCounts,-71,1
identicalReadCounts,-70,2
identicalReadCounts,-69,2
identicalReadCounts,-68,3
identicalReadCounts,-67,3
identicalReadCounts,-66,4
identicalReadCounts,-65,5
identicalReadCounts,-64,5
identicalReadCounts,-63,6
identicalReadCounts,-62,7
identicalReadCounts,-61,8
identicalReadCounts,-60,9
identicalReadCounts,-59,11
identicalReadCounts,-58,14
identicalReadCounts,-57,15
identicalReadCounts,-56,17
identicalReadCounts,-55,20
identicalReadCounts,-54,21
identicalReadCounts,-53,27
identicalReadCounts,-52,29
identicalReadCounts,-51,34
identicalReadCounts,-50,39
identicalReadCounts,-49,46
identicalReadCounts,-48,49
identicalReadCounts,-47,54
identicalReadCounts,-46,58
identicalReadCounts,-45,66
identicalReadCounts,-44,75
identicalReadCounts,-43,80
identicalReadCounts,-42,92
identicalReadCounts,-41,99
identicalReadCounts,-40,111
identicalReadCounts,-39,114
identicalReadCounts,-38,123
identicalReadCounts,-37,132
identicalReadCounts,-36,148
identicalReadCounts,-35,155
identicalReadCounts,-34,159
identicalReadCounts,-33,166
identicalReadCounts,-32,171
identicalReadCounts,-31,180
identicalReadCounts,-30,185
identicalReadCounts,-29,187
identicalReadCounts,-28,191
identicalReadCounts,-27,196
identicalReadCounts,-26,196
identicalReadCounts,-25,184
identicalReadCounts,-24,186
identicalReadCounts,-23,180
identicalReadCounts,-22,183
identicalReadCounts,-21,170
identicalReadCounts,-20,159
identicalReadCounts,-19,150
identicalReadCounts,-18,139
identicalReadCounts,-17,130
identicalReadCounts,-16,112
identicalReadCounts,-15,97
identicalReadCounts,-14,82
identicalReadCounts,-13,64
identicalReadCounts,-12,52
identicalReadCounts,-11,39
identicalReadCounts,-10,26
identicalReadCounts,-9,17
identicalReadCounts,-8,12
identicalReadCounts,-7,6
identicalReadCounts,-6,4
identicalReadCounts,-5,2
identicalReadCounts,-4,1
identicalReadCounts,1,1
identicalReadCounts,2,1
identicalReadCounts,3,2
identicalReadCounts,4,3
identicalReadCounts,5,7
identicalReadCounts,6,10
identicalReadCounts,7,17
identicalReadCounts,8,26
identicalReadCounts,9,37
identicalReadCounts,10,46
identicalReadCounts,11,65
identicalReadCounts,12,78
identicalReadCounts,13,98
identicalReadCounts,14,113
identicalReadCounts,15,134
identicalReadCounts,16,150
identicalReadCounts,17,174
identicalReadCounts,18,178
identicalReadCounts,19,195
identicalReadCounts,20,205
identicalReadCounts,21,214
identicalReadCounts,22,221
identicalReadCounts,23,230
identicalReadCounts,24,228
identicalReadCounts,25,222
identicalReadCounts,26,223
identicalReadCounts,27,216
identicalReadCounts,28,207
identicalReadCounts,29,196
identicalReadCounts,30,184
identicalReadCounts,31,175
identicalReadCounts,32,160
identicalReadCounts,33,146
identicalReadCounts,34,139
identicalReadCounts,35,123
identicalReadCounts,36,112
identicalReadCounts,37,99
identicalReadCounts,38,92
identicalReadCounts,39,80
identicalReadCounts,40,74
identicalReadCounts,41,66
identicalReadCounts,42,56
identicalReadCounts,43,49
identicalReadCounts,44,41
identicalReadCounts,45,37
identicalReadCounts,46,31
identicalReadCounts,47,25
identicalReadCounts,48,23
identicalReadCounts,49,18
identicalReadCounts,50,16
identicalReadCounts,51,12
identicalReadCounts,52,11
identicalReadCounts,53,9
identicalReadCounts,54,8
identicalReadCounts,55,7
identicalReadCounts,56,5
identicalReadCounts,57,5
identicalReadCounts,58,3
identicalReadCounts,59,3
identicalReadCounts,60,2
identicalReadCounts,61,1
identicalReadCounts,62,2
identicalReadCounts,63,1
identicalReadCounts,64,1
identicalReadCounts,65,1
identicalReadCounts,66,1
identicalReadCounts,67,1
identicalReadCounts,68,1
