identicalReadCounts,-6,1
identicalReadCounts,-5,2
identicalReadCounts,-4,6
identicalReadCounts,-3,16
identicalReadCounts,-2,93
identicalReadCounts,-1,149962
identicalReadCounts,1,149572
identicalReadCounts,2,76
identicalReadCounts,3,9
identicalReadCounts,4,2
