identicalReadCounts,-6,1
identicalReadCounts,-5,3
identicalReadCounts,-4,8
identicalReadCounts,-3,23
identicalReadCounts,-2,109
identicalReadCounts,-1,149839
identicalReadCounts,1,149526
identicalReadCounts,2,103
identicalReadCounts,3,17
identicalReadCounts,4,5
identicalReadCounts,5,2
