identicalReadCounts,-9,1
identicalReadCounts,-8,1
identicalReadCounts,-7,3
identicalReadCounts,-6,6
identicalReadCounts,-5,13
identicalReadCounts,-4,30
identicalReadCounts,-3,74
identicalReadCounts,-2,282
identicalReadCounts,-1,149143
identicalReadCounts,1,148891
identicalReadCounts,2,258
identicalReadCounts,3,67
identicalReadCounts,4,24
identicalReadCounts,5,9
identicalReadCounts,6,4
identicalReadCounts,7,2
identicalReadCounts,8,1
