identicalReadCounts,-5,1
identicalReadCounts,-4,3
identicalReadCounts,-3,9
identicalReadCounts,-2,59
identicalReadCounts,-1,149938
identicalReadCounts,1,149767
identicalReadCounts,2,54
identicalReadCounts,3,6
identicalReadCounts,4,1
