identicalReadCounts,-5,1
identicalReadCounts,-4,1
identicalReadCounts,-3,6
identicalReadCounts,-2,49
identicalReadCounts,-1,149946
identicalReadCounts,1,149833
identicalReadCounts,2,41
identicalReadCounts,3,4
identicalReadCounts,4,1
