identicalReadCounts,-5,1
identicalReadCounts,-4,3
identicalReadCounts,-3,11
identicalReadCounts,-2,64
identicalReadCounts,-1,149884
identicalReadCounts,1,149804
identicalReadCounts,2,57
identicalReadCounts,3,6
identicalReadCounts,4,1
