identicalReadCounts,-10,1
identicalReadCounts,-9,1
identicalReadCounts,-8,2
identicalReadCounts,-7,4
identicalReadCounts,-6,4
identicalReadCounts,-5,7
identicalReadCounts,-4,11
identicalReadCounts,-3,20
identicalReadCounts,-2,284
identicalReadCounts,-1,149461
identicalReadCounts,1,148996
identicalReadCounts,2,268
identicalReadCounts,3,12
identicalReadCounts,4,5
identicalReadCounts,5,1
identicalReadCounts,6,1
identicalReadCounts,7,1
