identicalReadCounts,-4,1
identicalReadCounts,-3,8
identicalReadCounts,-2,53
identicalReadCounts,-1,150059
identicalReadCounts,1,149705
identicalReadCounts,2,44
identicalReadCounts,3,4
identicalReadCounts,4,1
