identicalReadCounts,-5,1
identicalReadCounts,-4,1
identicalReadCounts,-3,9
identicalReadCounts,-2,266
identicalReadCounts,-1,149355
identicalReadCounts,1,149458
identicalReadCounts,2,272
identicalReadCounts,3,11
identicalReadCounts,4,2
identicalReadCounts,5,1
identicalReadCounts,6,1
identicalReadCounts,7,1
identicalReadCounts,8,1
