identicalReadCounts,-4,2
identicalReadCounts,-3,6
identicalReadCounts,-2,51
identicalReadCounts,-1,150094
identicalReadCounts,1,149680
identicalReadCounts,2,42
identicalReadCounts,3,3
identicalReadCounts,4,1
