identicalReadCounts,-5,1
identicalReadCounts,-4,2
identicalReadCounts,-3,7
identicalReadCounts,-2,50
identicalReadCounts,-1,150000
identicalReadCounts,1,149765
identicalReadCounts,2,45
identicalReadCounts,3,4
