identicalReadCounts,-4,2
identicalReadCounts,-3,7
identicalReadCounts,-2,55
identicalReadCounts,-1,149863
identicalReadCounts,1,149902
identicalReadCounts,2,41
identicalReadCounts,3,4
identicalReadCounts,4,1
