identicalReadCounts,-5,2
identicalReadCounts,-4,6
identicalReadCounts,-3,21
identicalReadCounts,-2,110
identicalReadCounts,-1,148987
identicalReadCounts,1,148663
identicalReadCounts,2,109
identicalReadCounts,3,18
identicalReadCounts,4,6
identicalReadCounts,5,2
identicalReadCounts,6,1
identicalReadCounts,7,1
identicalReadCounts,8,1
