identicalReadCounts,-5,1
identicalReadCounts,-4,2
identicalReadCounts,-3,9
identicalReadCounts,-2,62
identicalReadCounts,-1,149990
identicalReadCounts,1,149715
identicalReadCounts,2,53
identicalReadCounts,3,6
identicalReadCounts,4,1
