identicalReadCounts,-6,1
identicalReadCounts,-5,3
identicalReadCounts,-4,7
identicalReadCounts,-3,21
identicalReadCounts,-2,115
identicalReadCounts,-1,149803
identicalReadCounts,1,149576
identicalReadCounts,2,98
identicalReadCounts,3,16
identicalReadCounts,4,5
identicalReadCounts,5,2
identicalReadCounts,6,1
