identicalReadCounts,-10,2
identicalReadCounts,-9,2
identicalReadCounts,-8,3
identicalReadCounts,-7,4
identicalReadCounts,-6,6
identicalReadCounts,-5,8
identicalReadCounts,-4,13
identicalReadCounts,-3,21
identicalReadCounts,-2,101
identicalReadCounts,-1,149805
identicalReadCounts,1,149415
identicalReadCounts,2,81
identicalReadCounts,3,13
identicalReadCounts,4,4
identicalReadCounts,5,1
identicalReadCounts,6,1
identicalReadCounts,7,1
identicalReadCounts,8,1
identicalReadCounts,9,1
