identicalReadCounts,-4,1
identicalReadCounts,-3,7
identicalReadCounts,-2,53
identicalReadCounts,-1,150018
identicalReadCounts,1,149739
identicalReadCounts,2,45
identicalReadCounts,3,5
identicalReadCounts,4,1
