identicalReadCounts,-7,1
identicalReadCounts,-6,1
identicalReadCounts,-5,2
identicalReadCounts,-4,6
identicalReadCounts,-3,17
identicalReadCounts,-2,93
identicalReadCounts,-1,149998
identicalReadCounts,1,149521
identicalReadCounts,2,81
identicalReadCounts,3,11
identicalReadCounts,4,2
identicalReadCounts,5,1
