----------------------------------------
Begin PBS Prologue Tue Jul 20 14:11:11 PDT 2010
Job ID:            8929794.hpc-pbs.usc.edu
Username:          ramjan
Group:             hsc-ar
Name:              checkMTU.sh
Queue:             laird
Shared Access:     yes
Nodes:             hpc1643 
TMPDIR:            /tmp/8929794.hpc-pbs.usc.edu
End PBS Prologue Tue Jul 20 14:11:11 PDT 2010
----------------------------------------
Warning: no access to tty (Bad file descriptor).
Thus no job control in this shell.
----------------------------------------
Begin PBS Epilogue Tue Jul 20 14:21:23 PDT 2010
Job ID:           8929794.hpc-pbs.usc.edu
Username:         ramjan
Group:            hsc-ar
Job Name:         checkMTU.sh
Session:          4798
Limits:           neednodes=1,nodes=1,walltime=02:00:00
Resources:        cput=00:00:00,mem=3800kb,vmem=188384kb,walltime=00:10:12
Queue:            laird
End PBS Epilogue Tue Jul 20 14:21:23 PDT 2010
----------------------------------------
