----------------------------------------
Begin PBS Prologue Tue Sep 11 15:37:32 PDT 2012
Job ID:            2491947.hpc-pbs.usc.edu
Username:          ramjan
Group:             hsc-ar
Name:              fCZ2KbbgfG
Queue:             lairdprio
Shared Access:     yes
Nodes:             hpc1444 
TMPDIR:            /tmp/2491947.hpc-pbs.usc.edu
End PBS Prologue Tue Sep 11 15:37:32 PDT 2012
----------------------------------------
Warning: no access to tty (Bad file descriptor).
Thus no job control in this shell.
----------------------------------------
Begin PBS Epilogue Tue Sep 11 15:47:48 PDT 2012
Job ID:           2491947.hpc-pbs.usc.edu
Username:         ramjan
Group:            hsc-ar
Job Name:         fCZ2KbbgfG
Session:          11757
Limits:           neednodes=1:ppn=8:dx340,nodes=1:ppn=8:dx340,walltime=200:00:00
Resources:        cput=00:10:17,mem=2515632kb,vmem=2840428kb,walltime=00:10:16
Queue:            lairdprio
End PBS Epilogue Tue Sep 11 15:47:48 PDT 2012
----------------------------------------
