----------------------------------------
Begin PBS Prologue Wed Jan 14 16:48:01 PST 2009
Job ID:            5093148.hpc-pbs.usc.edu
Username:          ramjan
Group:             hsc-ar
Name:              test.sh
Queue:             quick
Shared Access:     no
Nodes:             hpc2653 
TMPDIR:            /tmp/5093148.hpc-pbs.usc.edu
End PBS Prologue Wed Jan 14 16:48:01 PST 2009
----------------------------------------
Warning: no access to tty (Bad file descriptor).
Thus no job control in this shell.

----------------------------------------
Begin PBS Epilogue Wed Jan 14 16:49:01 PST 2009
Job ID:           5093148.hpc-pbs.usc.edu
Username:         ramjan
Group:            hsc-ar
Job Name:         test.sh
Session:          29380
Limits:           neednodes=1,nodes=1,walltime=00:30:00
Resources:        cput=00:00:00,mem=2700kb,vmem=159748kb,walltime=00:01:00
Queue:            quick
End PBS Epilogue Wed Jan 14 16:49:01 PST 2009
----------------------------------------
